%YAML 1.1
%TAG !u! tag:unity3d.com,2011:
--- !u!114 &11400000
MonoBehaviour:
  m_ObjectHideFlags: 0
  m_CorrespondingSourceObject: {fileID: 0}
  m_PrefabInstance: {fileID: 0}
  m_PrefabAsset: {fileID: 0}
  m_GameObject: {fileID: 0}
  m_Enabled: 1
  m_EditorHideFlags: 0
  m_Script: {fileID: 11500000, guid: 8128192b55cc4ee4b923ad4da756daae, type: 3}
  m_Name: One
  m_EditorClassIdentifier: 
  Name: Item1
  Prefab: {fileID: 5419029799037361098, guid: 0570c691c5519b44fb4a8628aec1dc35, type: 3}
  Points: 10
